[
  {
    "NamaKecamatan": "Cibiru",
    "Kota": {
      "NamaKota": "Bandung"
    },
  "IsActive":true
  },
  {
    "NamaKecamatan": "Kiara Condong",
    "Kota": {
      "NamaKota": "Bandung"
    },
  "IsActive":true
  }
]